<svg width="1122" height="400" viewBox="0 0 1122 400" fill="none" xmlns="http://www.w3.org/2000/svg">
<g id="Logotype - colored - digital">
<g id="logotype">
<g id="logo">
<path id="Inner curve" fill-rule="evenodd" clip-rule="evenodd" d="M146 326.994L145.97 380.844C145.97 383.385 145.607 384.717 144.521 386C127.67 386 0.587052 319.695 0.0020263 193.438C0.587052 66.3048 127.67 0 144.521 0C145.607 1.28344 145.97 2.61468 145.97 5.15623L146 58.9883C113.852 58.9883 45.7143 110.857 45.3521 193C45.7143 275.141 113.852 326.994 146 326.994Z" transform="translate(102 393) scale(1 -1)" fill="url(#paint0_linear)"/>
<path id="Outer curve" fill-rule="evenodd" clip-rule="evenodd" d="M201.275 58.4C122.573 58.4 58.7722 121.796 58.7722 200C58.7722 278.204 122.573 341.6 201.275 341.6C217.564 341.6 233.413 338.998 247.994 333.996L247.97 389.425C247.97 392.301 245.995 395.011 243.272 395.64C229.726 398.497 215.677 400 201.275 400C90.1138 400 0 310.457 0 200C0 89.5431 90.1138 0 201.275 0C215.689 0 229.75 1.50569 243.306 4.36742C246.091 5.01184 247.97 7.62746 247.97 10.5708L247.994 65.9906C233.396 60.9754 217.588 58.4 201.275 58.4Z" transform="translate(0 400) scale(1 -1)" fill="url(#paint1_linear)"/>
</g>
<g id="Cylindo logo text - dark">
<path id="Cylindo logo text" fill-rule="evenodd" clip-rule="evenodd" d="M77.6123 158.977C62.9097 158.977 49.6564 155.718 37.8519 149.201C26.0474 142.683 16.7878 133.65 10.0726 122.102C3.35751 110.554 0 97.6251 0 83.3143C0 69.0034 3.35751 56.0742 10.0726 44.5264C16.7878 32.9785 26.0828 23.9458 37.9579 17.428C49.8331 10.9102 63.1217 7.65131 77.8243 7.65131C88.8513 7.65131 99.0298 9.49327 108.36 13.1773C117.691 16.8612 125.607 22.2454 132.111 29.33L122.144 39.3192C110.551 27.5588 95.9198 21.6787 78.2484 21.6787C66.5146 21.6787 55.8413 24.3708 46.2281 29.7551C36.6148 35.1394 29.087 42.5072 23.6442 51.8589C18.2014 61.2105 15.48 71.6956 15.48 83.3143C15.48 94.933 18.2014 105.418 23.6442 114.77C29.087 124.121 36.6148 131.489 46.2281 136.873C55.8413 142.258 66.5146 144.95 78.2484 144.95C96.0612 144.95 110.693 138.999 122.144 127.097L132.111 137.086C125.607 144.171 117.655 149.59 108.254 153.345C98.8531 157.1 88.6392 158.977 77.6123 158.977ZM256.163 45.9079L200.392 171.092C195.868 181.577 190.638 189.016 184.7 193.408C178.763 197.801 171.624 199.997 163.283 199.997C157.911 199.997 152.892 199.147 148.227 197.446C143.561 195.746 139.532 193.196 136.14 189.795L143.137 178.531C148.792 184.198 155.578 187.032 163.495 187.032C168.584 187.032 172.931 185.615 176.536 182.781C180.141 179.947 183.499 175.13 186.609 168.329L191.486 157.489L141.653 45.9079H157.345L199.332 140.912L241.319 45.9079H256.163ZM277.368 0H292.424V157.702H277.368V0ZM334.411 45.9079H349.467V157.702H334.411V45.9079ZM342.045 21.4662C338.935 21.4662 336.32 20.4035 334.199 18.2781C332.079 16.1528 331.019 13.6023 331.019 10.6268C331.019 7.79299 332.079 5.31342 334.199 3.18805C336.32 1.06267 338.935 0 342.045 0C345.156 0 347.771 1.02725 349.891 3.08178C352.012 5.13631 353.072 7.58045 353.072 10.4143C353.072 13.5315 352.012 16.1528 349.891 18.2781C347.771 20.4035 345.156 21.4662 342.045 21.4662ZM448.285 45.0577C462.281 45.0577 473.414 49.1313 481.684 57.2786C489.954 65.4258 494.089 77.2923 494.089 92.8784V157.702H479.033V94.3662C479.033 82.7474 476.135 73.8918 470.339 67.7991C464.543 61.7064 456.273 58.66 445.528 58.66C433.512 58.66 424.005 62.2377 417.007 69.3931C410.009 76.5486 406.51 86.4314 406.51 99.042V157.702H391.454V45.9079H405.874V66.5239C409.974 59.7227 415.664 54.4448 422.945 50.6899C430.225 46.9351 438.672 45.0577 448.285 45.0577ZM636.802 0V157.702H622.383V135.598C617.859 143.108 611.886 148.846 604.464 152.814C597.042 156.781 588.666 158.765 579.335 158.765C568.874 158.765 559.402 156.356 550.92 151.538C542.438 146.721 535.793 139.991 530.987 131.348C526.18 122.704 523.777 112.857 523.777 101.805C523.777 90.753 526.18 80.9056 530.987 72.2624C535.793 63.6192 542.438 56.9244 550.92 52.1777C559.402 47.431 568.874 45.0577 579.335 45.0577C588.383 45.0577 596.547 46.9351 603.828 50.6899C611.108 54.4448 617.081 59.9352 621.746 67.1615V0H636.802ZM580.608 145.375C588.383 145.375 595.416 143.568 601.707 139.955C607.998 136.342 612.946 131.206 616.551 124.546C620.156 117.887 621.959 110.306 621.959 101.805C621.959 93.3034 620.156 85.7231 616.551 79.0636C612.946 72.404 607.998 67.2678 601.707 63.6547C595.416 60.0415 588.383 58.235 580.608 58.235C572.691 58.235 565.587 60.0415 559.296 63.6547C553.005 67.2678 548.057 72.404 544.452 79.0636C540.847 85.7231 539.045 93.3034 539.045 101.805C539.045 110.306 540.847 117.887 544.452 124.546C548.057 131.206 553.005 136.342 559.296 139.955C565.587 143.568 572.691 145.375 580.608 145.375ZM724.381 158.765C713.637 158.765 703.953 156.321 695.33 151.432C686.706 146.544 679.92 139.778 674.972 131.135C670.024 122.492 667.55 112.715 667.55 101.805C667.55 90.8947 670.024 81.1181 674.972 72.4749C679.92 63.8317 686.706 57.1015 695.33 52.2839C703.953 47.4664 713.637 45.0577 724.381 45.0577C735.125 45.0577 744.809 47.4664 753.433 52.2839C762.056 57.1015 768.807 63.8317 773.684 72.4749C778.561 81.1181 781 90.8947 781 101.805C781 112.715 778.561 122.492 773.684 131.135C768.807 139.778 762.056 146.544 753.433 151.432C744.809 156.321 735.125 158.765 724.381 158.765ZM724.381 145.375C732.298 145.375 739.402 143.568 745.693 139.955C751.984 136.342 756.896 131.206 760.431 124.546C763.965 117.887 765.732 110.306 765.732 101.805C765.732 93.3034 763.965 85.7231 760.431 79.0636C756.896 72.404 751.984 67.2678 745.693 63.6547C739.402 60.0415 732.298 58.235 724.381 58.235C716.464 58.235 709.361 60.0415 703.07 63.6547C696.779 67.2678 691.831 72.404 688.226 79.0636C684.621 85.7231 682.818 93.3034 682.818 101.805C682.818 110.306 684.621 117.887 688.226 124.546C691.831 131.206 696.779 136.342 703.07 139.955C709.361 143.568 716.464 145.375 724.381 145.375Z" transform="translate(341 122.795)" fill="#304857"/>
</g>
</g>
</g>
<defs>
<linearGradient id="paint0_linear" x2="1" gradientUnits="userSpaceOnUse" gradientTransform="translate(-71.7955 193) scale(254.212 672.095)">
<stop stop-color="#CEEDEA" stop-opacity="0.01"/>
<stop offset="1" stop-color="#B3E7E2"/>
</linearGradient>
<linearGradient id="paint1_linear" x2="1" gradientUnits="userSpaceOnUse" gradientTransform="translate(-57.273 200) scale(257.382 415.141)">
<stop stop-color="#3DA79D"/>
<stop offset="1" stop-color="#4CCCBF"/>
</linearGradient>
</defs>
</svg>
